Loading and preprocessing the data
----------------------------------

I expect this program to be run from the repository <https://github.com/Mathieu-MICHEL/RepData_PeerAssessment1>, containing the data as a zip file **"activity.zip"**.

And I like to store it as a tibble, from the tidyverse (check it out <https://www.tidyverse.org/>)

``` r
        data <- as.tibble(read.csv(unzip("activity.zip")))   
        data
```

    ## # A tibble: 17,568 x 3
    ##    steps date       interval
    ##    <int> <fct>         <int>
    ##  1    NA 2012-10-01        0
    ##  2    NA 2012-10-01        5
    ##  3    NA 2012-10-01       10
    ##  4    NA 2012-10-01       15
    ##  5    NA 2012-10-01       20
    ##  6    NA 2012-10-01       25
    ##  7    NA 2012-10-01       30
    ##  8    NA 2012-10-01       35
    ##  9    NA 2012-10-01       40
    ## 10    NA 2012-10-01       45
    ## # ... with 17,558 more rows
…
